{
	"name": "rhm",
	"label": "RHM",
	"description": "RHM follows the inductive reasoning approach, at first, the algorithm learns the most specific patterns of each class, then it tries to find more general ones. At the last step, we use a greedy approach to keep a subset of patterns that represent each class",
	"family": "Data_Exploration",
	"entry_point": "rhm.main::rhm_run",
	"inputs": [{
		"name": "learningset",
		"label": "Learningset",
		"description": "Timeseries references to use for RHM computation",
		"type": "table"
	}],
	"parameters": [{
			"name": "bins",
			"label": "Discretizing bins",
			"description": "number of bins to use in discretizing the values of the tslist",
			"type": "number",
			"default_value": 4
		},
		{
			"name": "labels",
			"label": "Class labels",
			"description": "The set of labels to learn their respective patterns. (the labels should be separated by ',')",
			"type": "text"
		},
		{
			"name": "windows",
			"label": "Sliding window",
			"description": "the windows set describes the size of the learned pattern (list of integer separated by ',')",
			"type": "text",
			"default_value": "4"
		},
		{
			"name": "purity",
			"label": "Purity percentage",
			"description": "All learned patterns should exceed the purity percentage, (positivity 1.0 means no noise, pure patterns) [0;1]",
			"type": "number",
			"default_value": 0.9
		},
		{
			"name": "cov_threshold",
			"label": "Coverage threshold",
			"description": "All learned patterns should cover a required percentage of TS, (decreases the number of false positive) [0;1]",
			"type": "number",
			"default_value": 0.1
		},
		{
			"name": "generalizer",
			"label": "Pattern generalizer",
			"description": "Invoke the generalization step (generalizing two patterns into one)",
			"type": "bool",
			"default_value": false
		},
		{
			"name": "var_pair",
			"label": "Patterns for pair of variables",
			"description": "Generate patterns for pair of variables, only works with even window length",
			"type": "bool",
			"default_value": false
		},
		{
			"name": "conf_threshold",
			"label": "Confidence threshold",
			"description": "Combine the patterns kept after the tiling (greedy) steps with the most confident patterns (percentage value)  [0;1]",
			"type": "number",
			"default_value": 0.2
		}
	],
	"outputs": [{
		"name": "rhm_result",
		"label": "RHM results",
		"description": "Result of the RHM algorithm",
		"type": "rhm"
	}]
}
